…
Iteration

``` r
cv_df = crossv_mc(nonlin_df, 100)

cv_df %>% pull(train) %>% .[[5]] %>% as_tibble()
## # A tibble: 79 x 3
##       id     x      y
##    <int> <dbl>  <dbl>
##  1     1 0.194  0.708
##  2     2 0.206  0.752
##  3     3 0.409  0.689
##  4     4 0.519  0.990
##  5     5 0.788 -1.04 
##  6     6 0.602 -0.166
##  7     8 0.429  1.15 
##  8     9 0.412  0.835
##  9    10 0.973 -3.23 
## 10    11 0.734 -1.24 
## # ... with 69 more rows
…
